Longitudinal Microbiome Analysis with Result-Based Interpretation: KosticAD_2015
…
save_table(taxa_clr_lmm_results, "03_taxa_CLR_LMM_results_time_months.tsv")
base::print(taxa_clr_lmm_results)

## # A tibble: 48 × 13
##    effect term     estimate std.error statistic    df p.value conf.low conf.high
##    <chr>  <chr>       <dbl>     <dbl>     <dbl> <dbl>   <dbl>    <dbl>     <dbl>
##  1 fixed  (Interc…  7.91e+0    0.785    10.1     21.3 1.45e-9  6.28       9.54  
##  2 fixed  time_mo…  7.42e-4    0.0237    0.0312 100.  9.75e-1 -0.0463     0.0478
##  3 fixed  study_c…  2.89e-1    1.69      0.171   20.2 8.66e-1 -3.23       3.81  
##  4 fixed  time_mo…  2.50e-2    0.0516    0.485  101.  6.29e-1 -0.0773     0.127 
##  5 fixed  (Interc…  5.33e+0    1.11      4.81    20.4 1.02e-4  3.02       7.64  
##  6 fixed  time_mo…  2.81e-2    0.0297    0.945  100.  3.47e-1 -0.0309     0.0871
##  7 fixed  study_c… -8.94e-1    2.39     -0.374   19.6 7.12e-1 -5.89       4.10  
##  8 fixed  time_mo…  6.41e-2    0.0647    0.991  101.  3.24e-1 -0.0642     0.192 
##  9 fixed  (Interc…  7.20e+0    0.884     8.14    21.0 6.18e-8  5.36       9.03  
## 10 fixed  time_mo…  6.04e-2    0.0260    2.32   100.  2.22e-2  0.00882    0.112 
## # ℹ 38 more rows
## # ℹ 4 more variables: taxon <chr>, p_adj_BH <dbl>, taxon_short <chr>,
## #   significance <chr>
…
final_key_results <- dplyr::bind_rows(alpha_final, beta_final, taxa_final)

save_table(alpha_final, "04_final_alpha_key_results_time_months.tsv")
save_table(beta_final, "04_final_beta_key_results_time_months.tsv")
save_table(taxa_final, "04_final_taxa_key_results_time_months.tsv")
save_table(final_key_results, "04_final_key_results_all_time_months.tsv")

base::print(final_key_results)

## # A tibble: 42 × 9
##    analysis        outcome   term  estimate conf.low conf.high  p.value p_adj_BH
##    <chr>           <chr>     <chr>    <dbl>    <dbl>     <dbl>    <dbl>    <dbl>
##  1 Alpha diversity Shannon … time…  1.58e-2  0.00507    0.0264 4.25e- 3   NA    
##  2 Alpha diversity Shannon … stud…  6.32e-2 -0.414      0.541  7.88e- 1   NA    
##  3 Alpha diversity Shannon … time…  2.51e-3 -0.0206     0.0257 8.30e- 1   NA    
##  4 Beta diversity  Bray-Cur… time…  2.19e-2  0.0162     0.0275 9.83e-12   NA    
##  5 Beta diversity  Bray-Cur… stud…  3.50e-2 -0.170      0.240  7.33e- 1   NA    
##  6 Beta diversity  Bray-Cur… time… -1.77e-3 -0.0140     0.0105 7.75e- 1   NA    
##  7 Taxa-level      s__Bacte… time…  7.42e-4 -0.0463     0.0478 9.75e- 1    0.975
##  8 Taxa-level      s__Bacte… stud…  2.89e-1 -3.23       3.81   8.66e- 1    0.866
##  9 Taxa-level      s__Bacte… time…  2.50e-2 -0.0773     0.127  6.29e- 1    0.690
## 10 Taxa-level      s__Bacte… time…  2.81e-2 -0.0309     0.0871 3.47e- 1    0.521
## # ℹ 32 more rows
## # ℹ 1 more variable: significance <chr>
…
